F
F
F
D+
F
F
F
F
F
D-
F
F
F
F
F
F
F
F
F
F
F
F
F
F
F
F
F
F
F
F
F
F
F
F
F
F
F
F
F
F
F
F
F
F
D+
F
F
F
F
F
F
F
F
F
F
F
F
F
F
D+
F
F
F
F
F
F
F
F
F
D-
F
F
F
D-
F
F
F
F
F
D+
F
F
F
F
F
F
F
F
D-
F
F
D-
F
D-
F
F
F
F
F
D-
F
F
F
F
F
F
F
F
F
F
F
F
F
F
F
F
F
F
F
F
D+
F
F
F
F
F
F
F
B-
F
F
F
F
F
F
F
F
D-
F
F
F
F
F
F
F
F
F
F
F
F
F
F
D-
F
F
F
F
F
F
F
F
F
F
F
F
F
F
F
D+
F
F
F
D-
F
D
F
F
F
F
F
F
D-
F
F
F
F
F
F
F
F
F
F
F
F
F
F
F
F
F
F
F
F
F
F
F
F
F
F
F
F
F
F
F
F
F
F
F
F
F
F
F
D
D-
